{
  "name": "Ricv",
  "version": "0.0.1",
  "manifest_version": 2,
  "description": "View comments inline",
  "icons": {
    "16": "images/icon-16.png",
    "128": "images/icon-128.png"
  },
  "default_locale": "en",
  "permissions": [
    "tabs",
    "contextMenus",
    "<all_urls>"
  ],
  "background": {
    "scripts": [
      "background.min.js"
    ]
  },
  "content_scripts": [
    {
      "matches": [
        "<all_urls>"
      ],
      "js": [
        "bundled.min.js",
        "templates.min.js"
      ],
      "css": [
        "styles/bundled.min.css"
      ]
    }
  ],
  "web_accessible_resources": [
    "templates/templates.min.js",
    "templates/template-leaf.js",
    "templates/template-metrics.js",
    "templates/template-root.js"
  ]
}
